Label,# Samples,Average,Median,90% Line,95% Line,99% Line,Min,Max,Error %,Throughput,Received KB/sec,Sent KB/sec
https://client.sana-commerce.dev/,10,16020,15118,19078,19078,21096,13939,21096,40.000%,.45673,3077.57,2.00
https://rest.sana-commerce.dev/petclinic/api/pettypes,10,314,246,582,582,677,201,677,0.000%,1.26566,0.83,0.49
Test,10,16334,15357,19296,19296,21342,14188,21342,40.000%,.45159,3043.26,2.15
TOTAL,30,10889,14562,19078,19296,21342,201,21342,26.667%,1.35477,6086.52,4.30
