{
  "uuid": "60b0ba15-3331-43e9-b0b0-61109899237a-tc-0-1012",
  "name": "Lr4.SpecialtiesitemupdatesTest.specialtiesitemupdates",
  "children": [
    "f3c18d91-6cf4-4d4a-9d55-5ca6a1ed6743-tr-0-1013"
  ],
  "befores": [
    {
      "name": "Setup",
      "status": "passed",
      "statusDetails": {
        "known": false,
        "muted": false,
        "flaky": false
      },
      "stage": "finished",
      "steps": [],
      "attachments": [],
      "parameters": [],
      "start": 1650825462776,
      "stop": 1650825462776
    }
  ],
  "afters": [
    {
      "name": "TearDown",
      "status": "passed",
      "statusDetails": {
        "known": false,
        "muted": false,
        "flaky": false
      },
      "stage": "finished",
      "steps": [],
      "attachments": [],
      "parameters": [],
      "start": 1650825462776,
      "stop": 1650825462776
    }
  ],
  "links": [],
  "start": 1650825450882,
  "stop": 1650825462777
}