{
  "uuid": "353b581e-2d05-4373-9fb2-02b7a8309acc-tr-0-1017",
  "historyId": "Lr4.VeterinariansaddpageloadsTest.veterinariansaddpageloads",
  "fullName": "Lr4.VeterinariansaddpageloadsTest.veterinariansaddpageloads",
  "labels": [
    {
      "name": "thread",
      "value": "NonParallelWorker"
    },
    {
      "name": "host",
      "value": "TINA"
    },
    {
      "name": "package",
      "value": "Lr4"
    },
    {
      "name": "testMethod",
      "value": "veterinariansaddpageloads"
    },
    {
      "name": "testClass",
      "value": "VeterinariansaddpageloadsTest"
    },
    {
      "name": "suite",
      "value": "Veterinarians"
    },
    {
      "name": "tag",
      "value": "NUnit"
    }
  ],
  "links": [],
  "name": "veterinariansaddpageloads",
  "status": "passed",
  "statusDetails": {
    "known": false,
    "muted": false,
    "flaky": false,
    "message": "veterinariansaddpageloads"
  },
  "stage": "finished",
  "description": "This test checks that veterinarians add page could be loaded successfully\n",
  "steps": [
    {
      "name": "veterinariansaddpageloads",
      "status": "passed",
      "statusDetails": {
        "known": false,
        "muted": false,
        "flaky": false
      },
      "stage": "finished",
      "steps": [
        {
          "name": "Open vets add page",
          "status": "passed",
          "statusDetails": {
            "known": false,
            "muted": false,
            "flaky": false
          },
          "stage": "finished",
          "steps": [],
          "attachments": [],
          "parameters": [],
          "start": 1650823796520,
          "stop": 1650823796643
        },
        {
          "name": "Get vets page header text",
          "status": "passed",
          "statusDetails": {
            "known": false,
            "muted": false,
            "flaky": false
          },
          "stage": "finished",
          "steps": [],
          "attachments": [],
          "parameters": [],
          "start": 1650823796643,
          "stop": 1650823796665
        }
      ],
      "attachments": [
        {
          "name": "Console Output",
          "source": "b71a1113cdd74c23907bd045ac4d0174-attachment.txt",
          "type": "text/plain"
        }
      ],
      "parameters": [],
      "start": 1650823790701,
      "stop": 1650823796738
    }
  ],
  "attachments": [],
  "parameters": [],
  "start": 1650823790701,
  "stop": 1650823796739
}