{
  "uuid": "0b4ddfc8-2be1-4bee-8145-ec119b3794c8-tc-0-1016",
  "name": "Lr4.VeterinariansaddpageloadsTest.veterinariansaddpageloads",
  "children": [
    "353b581e-2d05-4373-9fb2-02b7a8309acc-tr-0-1017"
  ],
  "befores": [
    {
      "name": "Setup",
      "status": "passed",
      "statusDetails": {
        "known": false,
        "muted": false,
        "flaky": false
      },
      "stage": "finished",
      "steps": [],
      "attachments": [],
      "parameters": [],
      "start": 1650823796738,
      "stop": 1650823796738
    }
  ],
  "afters": [
    {
      "name": "TearDown",
      "status": "passed",
      "statusDetails": {
        "known": false,
        "muted": false,
        "flaky": false
      },
      "stage": "finished",
      "steps": [],
      "attachments": [],
      "parameters": [],
      "start": 1650823796738,
      "stop": 1650823796738
    }
  ],
  "links": [],
  "start": 1650823790701,
  "stop": 1650823796739
}