{
  "uuid": "977d4561-9f0f-403d-a94b-b2b0a5a38ec7-tr-0-1017",
  "historyId": "Lr4.VeterinariansaddpageloadsTest.veterinariansaddpageloads",
  "fullName": "Lr4.VeterinariansaddpageloadsTest.veterinariansaddpageloads",
  "labels": [
    {
      "name": "thread",
      "value": "NonParallelWorker"
    },
    {
      "name": "host",
      "value": "TINA"
    },
    {
      "name": "package",
      "value": "Lr4"
    },
    {
      "name": "testMethod",
      "value": "veterinariansaddpageloads"
    },
    {
      "name": "testClass",
      "value": "VeterinariansaddpageloadsTest"
    },
    {
      "name": "suite",
      "value": "Veterinarians"
    },
    {
      "name": "tag",
      "value": "NUnit"
    }
  ],
  "links": [],
  "name": "veterinariansaddpageloads",
  "status": "passed",
  "statusDetails": {
    "known": false,
    "muted": false,
    "flaky": false,
    "message": "veterinariansaddpageloads"
  },
  "stage": "finished",
  "description": "This test checks that veterinarians add page could be loaded successfully\n",
  "steps": [
    {
      "name": "veterinariansaddpageloads",
      "status": "passed",
      "statusDetails": {
        "known": false,
        "muted": false,
        "flaky": false
      },
      "stage": "finished",
      "steps": [
        {
          "name": "Open vets add page",
          "status": "passed",
          "statusDetails": {
            "known": false,
            "muted": false,
            "flaky": false
          },
          "stage": "finished",
          "steps": [],
          "attachments": [],
          "parameters": [],
          "start": 1650825479532,
          "stop": 1650825479755
        },
        {
          "name": "Get vets page header text",
          "status": "passed",
          "statusDetails": {
            "known": false,
            "muted": false,
            "flaky": false
          },
          "stage": "finished",
          "steps": [],
          "attachments": [],
          "parameters": [],
          "start": 1650825479756,
          "stop": 1650825479791
        }
      ],
      "attachments": [
        {
          "name": "Console Output",
          "source": "9e2a19b497864b32a90d1853727219cd-attachment.txt",
          "type": "text/plain"
        }
      ],
      "parameters": [],
      "start": 1650825471214,
      "stop": 1650825479845
    }
  ],
  "attachments": [],
  "parameters": [],
  "start": 1650825471214,
  "stop": 1650825479845
}