{
  "uuid": "f3c18d91-6cf4-4d4a-9d55-5ca6a1ed6743-tr-0-1013",
  "historyId": "Lr4.SpecialtiesitemupdatesTest.specialtiesitemupdates",
  "fullName": "Lr4.SpecialtiesitemupdatesTest.specialtiesitemupdates",
  "labels": [
    {
      "name": "thread",
      "value": "NonParallelWorker"
    },
    {
      "name": "host",
      "value": "TINA"
    },
    {
      "name": "package",
      "value": "Lr4"
    },
    {
      "name": "testMethod",
      "value": "specialtiesitemupdates"
    },
    {
      "name": "testClass",
      "value": "SpecialtiesitemupdatesTest"
    },
    {
      "name": "suite",
      "value": "Specialties"
    },
    {
      "name": "tag",
      "value": "NUnit"
    }
  ],
  "links": [],
  "name": "specialtiesitemupdates",
  "status": "passed",
  "statusDetails": {
    "known": false,
    "muted": false,
    "flaky": false,
    "message": "specialtiesitemupdates"
  },
  "stage": "finished",
  "description": "This test checks that specialty could be updated successfully\n",
  "steps": [
    {
      "name": "specialtiesitemupdates",
      "status": "passed",
      "statusDetails": {
        "known": false,
        "muted": false,
        "flaky": false
      },
      "stage": "finished",
      "steps": [
        {
          "name": "Open specialties page",
          "status": "passed",
          "statusDetails": {
            "known": false,
            "muted": false,
            "flaky": false
          },
          "stage": "finished",
          "steps": [],
          "attachments": [],
          "parameters": [],
          "start": 1650825459103,
          "stop": 1650825459243
        },
        {
          "name": "Get specialties page header text",
          "status": "passed",
          "statusDetails": {
            "known": false,
            "muted": false,
            "flaky": false
          },
          "stage": "finished",
          "steps": [],
          "attachments": [],
          "parameters": [],
          "start": 1650825460750,
          "stop": 1650825460783
        },
        {
          "name": "Edit specialties with specified name",
          "status": "passed",
          "statusDetails": {
            "known": false,
            "muted": false,
            "flaky": false
          },
          "stage": "finished",
          "steps": [],
          "attachments": [],
          "parameters": [
            {
              "name": "String",
              "value": "New specialty 2"
            }
          ],
          "start": 1650825460784,
          "stop": 1650825461186
        },
        {
          "name": "Get name of last specialties item",
          "status": "passed",
          "statusDetails": {
            "known": false,
            "muted": false,
            "flaky": false
          },
          "stage": "finished",
          "steps": [],
          "attachments": [],
          "parameters": [],
          "start": 1650825462696,
          "stop": 1650825462723
        }
      ],
      "attachments": [
        {
          "name": "Console Output",
          "source": "d6f1e9811c2746c6b8a4f427fff5fc0d-attachment.txt",
          "type": "text/plain"
        }
      ],
      "parameters": [],
      "start": 1650825450882,
      "stop": 1650825462776
    }
  ],
  "attachments": [],
  "parameters": [],
  "start": 1650825450882,
  "stop": 1650825462776
}