{
  "uuid": "7849dc80-4fc3-4209-a8ef-f6ae2a67de35-tr-0-1001",
  "historyId": "Lr4.HomepageloadsTest.homepageloads",
  "fullName": "Lr4.HomepageloadsTest.homepageloads",
  "labels": [
    {
      "name": "thread",
      "value": "ParallelWorker#5"
    },
    {
      "name": "host",
      "value": "TINA"
    },
    {
      "name": "package",
      "value": "Lr4"
    },
    {
      "name": "testMethod",
      "value": "homepageloads"
    },
    {
      "name": "testClass",
      "value": "HomepageloadsTest"
    },
    {
      "name": "suite",
      "value": "Home"
    },
    {
      "name": "tag",
      "value": "NUnit"
    }
  ],
  "links": [],
  "name": "homepageloads",
  "status": "failed",
  "statusDetails": {
    "known": false,
    "muted": false,
    "flaky": false,
    "message": "OpenQA.Selenium.WebDriverException : The HTTP request to the remote WebDriver server for URL http://localhost:4444/wd/hub/session timed out after 60 seconds.\r\n  ----> System.Threading.Tasks.TaskCanceledException : The request was canceled due to the configured HttpClient.Timeout of 60 seconds elapsing.\r\n  ----> System.TimeoutException : The operation was canceled.\r\n  ----> System.Threading.Tasks.TaskCanceledException : The operation was canceled.\r\n  ----> System.IO.IOException : Unable to read data from the transport connection: Операция ввода/вывода была прервана из-за завершения потока команд или по запросу приложения..\r\n  ----> System.Net.Sockets.SocketException : Операция ввода/вывода была прервана из-за завершения потока команд или по запросу приложения.\r\nTearDown : System.IO.DirectoryNotFoundException : Could not find a part of the path 'C:\\Users\\Tina\\Desktop\\filesForUniv\\2021(4)\\labs\\Сівченко\\QA\\Лр6\\Lr4\\TestResults'.",
    "trace": "   at OpenQA.Selenium.Remote.HttpCommandExecutor.Execute(Command commandToExecute)\r\n   at OpenQA.Selenium.WebDriver.Execute(String driverCommandToExecute, Dictionary`2 parameters)\r\n   at OpenQA.Selenium.WebDriver.StartSession(ICapabilities desiredCapabilities)\r\n   at OpenQA.Selenium.WebDriver..ctor(ICommandExecutor executor, ICapabilities capabilities)\r\n   at OpenQA.Selenium.Remote.RemoteWebDriver..ctor(ICommandExecutor commandExecutor, ICapabilities desiredCapabilities)\r\n   at OpenQA.Selenium.Remote.RemoteWebDriver..ctor(Uri remoteAddress, ICapabilities desiredCapabilities, TimeSpan commandTimeout)\r\n   at OpenQA.Selenium.Remote.RemoteWebDriver..ctor(Uri remoteAddress, ICapabilities desiredCapabilities)\r\n   at Lr4.BaseTest.Setup() in C:\\Users\\rafik\\OneDrive\\Desktop\\filesForUniv\\2021(4)\\labs\\Сівченко\\QA\\Лр7\\Lr4\\Lr4\\Tests\\BaseTest.cs:line 24\r\n--TaskCanceledException\r\n   at System.Net.Http.HttpClient.HandleFailure(Exception e, Boolean telemetryStarted, HttpResponseMessage response, CancellationTokenSource cts, CancellationToken cancellationToken, CancellationTokenSource pendingRequestsCts)\r\n   at System.Net.Http.HttpClient.<SendAsync>g__Core|83_0(HttpRequestMessage request, HttpCompletionOption completionOption, CancellationTokenSource cts, Boolean disposeCts, CancellationTokenSource pendingRequestsCts, CancellationToken originalCancellationToken)\r\n   at OpenQA.Selenium.Remote.HttpCommandExecutor.MakeHttpRequest(HttpRequestInfo requestInfo)\r\n   at OpenQA.Selenium.Remote.HttpCommandExecutor.Execute(Command commandToExecute)\r\n--TimeoutException\r\n\r\n--TaskCanceledException\r\n   at System.Net.Http.HttpConnection.SendAsyncCore(HttpRequestMessage request, Boolean async, CancellationToken cancellationToken)\r\n   at System.Net.Http.HttpConnectionPool.SendWithVersionDetectionAndRetryAsync(HttpRequestMessage request, Boolean async, Boolean doRequestAuth, CancellationToken cancellationToken)\r\n   at System.Net.Http.RedirectHandler.SendAsync(HttpRequestMessage request, Boolean async, CancellationToken cancellationToken)\r\n   at System.Net.Http.HttpClient.<SendAsync>g__Core|83_0(HttpRequestMessage request, HttpCompletionOption completionOption, CancellationTokenSource cts, Boolean disposeCts, CancellationTokenSource pendingRequestsCts, CancellationToken originalCancellationToken)\r\n--IOException\r\n   at System.Net.Sockets.Socket.AwaitableSocketAsyncEventArgs.ThrowException(SocketError error, CancellationToken cancellationToken)\r\n   at System.Net.Sockets.Socket.AwaitableSocketAsyncEventArgs.System.Threading.Tasks.Sources.IValueTaskSource<System.Int32>.GetResult(Int16 token)\r\n   at System.Net.Http.HttpConnection.InitialFillAsync(Boolean async)\r\n   at System.Net.Http.HttpConnection.SendAsyncCore(HttpRequestMessage request, Boolean async, CancellationToken cancellationToken)\r\n--SocketException\r\n\r\n--TearDown\r\n   at Microsoft.Win32.SafeHandles.SafeFileHandle.CreateFile(String fullPath, FileMode mode, FileAccess access, FileShare share, FileOptions options)\r\n   at Microsoft.Win32.SafeHandles.SafeFileHandle.Open(String fullPath, FileMode mode, FileAccess access, FileShare share, FileOptions options, Int64 preallocationSize)\r\n   at System.IO.Strategies.OSFileStreamStrategy..ctor(String path, FileMode mode, FileAccess access, FileShare share, FileOptions options, Int64 preallocationSize)\r\n   at System.IO.Strategies.FileStreamHelpers.ChooseStrategyCore(String path, FileMode mode, FileAccess access, FileShare share, FileOptions options, Int64 preallocationSize)\r\n   at System.IO.Strategies.FileStreamHelpers.ChooseStrategy(FileStream fileStream, String path, FileMode mode, FileAccess access, FileShare share, Int32 bufferSize, FileOptions options, Int64 preallocationSize)\r\n   at System.IO.FileStream..ctor(String path, FileMode mode)\r\n   at OpenQA.Selenium.Screenshot.SaveAsFile(String fileName, ScreenshotImageFormat format)\r\n   at Lr4.BaseTest.TearDown() in C:\\Users\\rafik\\OneDrive\\Desktop\\filesForUniv\\2021(4)\\labs\\Сівченко\\QA\\Лр7\\Lr4\\Lr4\\Tests\\BaseTest.cs:line 40"
  },
  "stage": "finished",
  "description": "\nSetup SetUp method failed\n\nTearDown TearDown method failed\nThis test checks that home page could be loaded successfully\n",
  "steps": [
    {
      "name": "homepageloads skipped because of Setup failure",
      "status": "skipped",
      "statusDetails": {
        "known": false,
        "muted": false,
        "flaky": false,
        "message": "OpenQA.Selenium.WebDriverException : The HTTP request to the remote WebDriver server for URL http://localhost:4444/wd/hub/session timed out after 60 seconds.\r\n  ----> System.Threading.Tasks.TaskCanceledException : The request was canceled due to the configured HttpClient.Timeout of 60 seconds elapsing.\r\n  ----> System.TimeoutException : The operation was canceled.\r\n  ----> System.Threading.Tasks.TaskCanceledException : The operation was canceled.\r\n  ----> System.IO.IOException : Unable to read data from the transport connection: Операция ввода/вывода была прервана из-за завершения потока команд или по запросу приложения..\r\n  ----> System.Net.Sockets.SocketException : Операция ввода/вывода была прервана из-за завершения потока команд или по запросу приложения.\r\nTearDown : System.IO.DirectoryNotFoundException : Could not find a part of the path 'C:\\Users\\Tina\\Desktop\\filesForUniv\\2021(4)\\labs\\Сівченко\\QA\\Лр6\\Lr4\\TestResults'.",
        "trace": "   at OpenQA.Selenium.Remote.HttpCommandExecutor.Execute(Command commandToExecute)\r\n   at OpenQA.Selenium.WebDriver.Execute(String driverCommandToExecute, Dictionary`2 parameters)\r\n   at OpenQA.Selenium.WebDriver.StartSession(ICapabilities desiredCapabilities)\r\n   at OpenQA.Selenium.WebDriver..ctor(ICommandExecutor executor, ICapabilities capabilities)\r\n   at OpenQA.Selenium.Remote.RemoteWebDriver..ctor(ICommandExecutor commandExecutor, ICapabilities desiredCapabilities)\r\n   at OpenQA.Selenium.Remote.RemoteWebDriver..ctor(Uri remoteAddress, ICapabilities desiredCapabilities, TimeSpan commandTimeout)\r\n   at OpenQA.Selenium.Remote.RemoteWebDriver..ctor(Uri remoteAddress, ICapabilities desiredCapabilities)\r\n   at Lr4.BaseTest.Setup() in C:\\Users\\rafik\\OneDrive\\Desktop\\filesForUniv\\2021(4)\\labs\\Сівченко\\QA\\Лр7\\Lr4\\Lr4\\Tests\\BaseTest.cs:line 24\r\n--TaskCanceledException\r\n   at System.Net.Http.HttpClient.HandleFailure(Exception e, Boolean telemetryStarted, HttpResponseMessage response, CancellationTokenSource cts, CancellationToken cancellationToken, CancellationTokenSource pendingRequestsCts)\r\n   at System.Net.Http.HttpClient.<SendAsync>g__Core|83_0(HttpRequestMessage request, HttpCompletionOption completionOption, CancellationTokenSource cts, Boolean disposeCts, CancellationTokenSource pendingRequestsCts, CancellationToken originalCancellationToken)\r\n   at OpenQA.Selenium.Remote.HttpCommandExecutor.MakeHttpRequest(HttpRequestInfo requestInfo)\r\n   at OpenQA.Selenium.Remote.HttpCommandExecutor.Execute(Command commandToExecute)\r\n--TimeoutException\r\n\r\n--TaskCanceledException\r\n   at System.Net.Http.HttpConnection.SendAsyncCore(HttpRequestMessage request, Boolean async, CancellationToken cancellationToken)\r\n   at System.Net.Http.HttpConnectionPool.SendWithVersionDetectionAndRetryAsync(HttpRequestMessage request, Boolean async, Boolean doRequestAuth, CancellationToken cancellationToken)\r\n   at System.Net.Http.RedirectHandler.SendAsync(HttpRequestMessage request, Boolean async, CancellationToken cancellationToken)\r\n   at System.Net.Http.HttpClient.<SendAsync>g__Core|83_0(HttpRequestMessage request, HttpCompletionOption completionOption, CancellationTokenSource cts, Boolean disposeCts, CancellationTokenSource pendingRequestsCts, CancellationToken originalCancellationToken)\r\n--IOException\r\n   at System.Net.Sockets.Socket.AwaitableSocketAsyncEventArgs.ThrowException(SocketError error, CancellationToken cancellationToken)\r\n   at System.Net.Sockets.Socket.AwaitableSocketAsyncEventArgs.System.Threading.Tasks.Sources.IValueTaskSource<System.Int32>.GetResult(Int16 token)\r\n   at System.Net.Http.HttpConnection.InitialFillAsync(Boolean async)\r\n   at System.Net.Http.HttpConnection.SendAsyncCore(HttpRequestMessage request, Boolean async, CancellationToken cancellationToken)\r\n--SocketException\r\n\r\n--TearDown\r\n   at Microsoft.Win32.SafeHandles.SafeFileHandle.CreateFile(String fullPath, FileMode mode, FileAccess access, FileShare share, FileOptions options)\r\n   at Microsoft.Win32.SafeHandles.SafeFileHandle.Open(String fullPath, FileMode mode, FileAccess access, FileShare share, FileOptions options, Int64 preallocationSize)\r\n   at System.IO.Strategies.OSFileStreamStrategy..ctor(String path, FileMode mode, FileAccess access, FileShare share, FileOptions options, Int64 preallocationSize)\r\n   at System.IO.Strategies.FileStreamHelpers.ChooseStrategyCore(String path, FileMode mode, FileAccess access, FileShare share, FileOptions options, Int64 preallocationSize)\r\n   at System.IO.Strategies.FileStreamHelpers.ChooseStrategy(FileStream fileStream, String path, FileMode mode, FileAccess access, FileShare share, Int32 bufferSize, FileOptions options, Int64 preallocationSize)\r\n   at System.IO.FileStream..ctor(String path, FileMode mode)\r\n   at OpenQA.Selenium.Screenshot.SaveAsFile(String fileName, ScreenshotImageFormat format)\r\n   at Lr4.BaseTest.TearDown() in C:\\Users\\rafik\\OneDrive\\Desktop\\filesForUniv\\2021(4)\\labs\\Сівченко\\QA\\Лр7\\Lr4\\Lr4\\Tests\\BaseTest.cs:line 40"
      },
      "stage": "finished",
      "steps": [],
      "attachments": [
        {
          "name": "Console Output",
          "source": "8fbb250671e64ea7bc70b75fcf11b212-attachment.txt",
          "type": "text/plain"
        }
      ],
      "parameters": [],
      "start": 1650825862003,
      "stop": 1650825922472
    }
  ],
  "attachments": [],
  "parameters": [],
  "start": 1650825862002,
  "stop": 1650825922472
}