{
  "uuid": "f5f63456-2ff0-4a2d-89dc-0893b17698aa-tr-0-1011",
  "historyId": "Lr4.SpecialtiesitemdeletesTest.specialtiesitemdeletes",
  "fullName": "Lr4.SpecialtiesitemdeletesTest.specialtiesitemdeletes",
  "labels": [
    {
      "name": "thread",
      "value": "NonParallelWorker"
    },
    {
      "name": "host",
      "value": "TINA"
    },
    {
      "name": "package",
      "value": "Lr4"
    },
    {
      "name": "testMethod",
      "value": "specialtiesitemdeletes"
    },
    {
      "name": "testClass",
      "value": "SpecialtiesitemdeletesTest"
    },
    {
      "name": "suite",
      "value": "Specialties"
    },
    {
      "name": "tag",
      "value": "NUnit"
    }
  ],
  "links": [],
  "name": "specialtiesitemdeletes",
  "status": "passed",
  "statusDetails": {
    "known": false,
    "muted": false,
    "flaky": false,
    "message": "specialtiesitemdeletes"
  },
  "stage": "finished",
  "description": "This test checks that specialty could be deleted successfully\n",
  "steps": [
    {
      "name": "specialtiesitemdeletes",
      "status": "passed",
      "statusDetails": {
        "known": false,
        "muted": false,
        "flaky": false
      },
      "stage": "finished",
      "steps": [
        {
          "name": "Open specialties page",
          "status": "passed",
          "statusDetails": {
            "known": false,
            "muted": false,
            "flaky": false
          },
          "stage": "finished",
          "steps": [],
          "attachments": [],
          "parameters": [],
          "start": 1650823770674,
          "stop": 1650823770753
        },
        {
          "name": "Get specialties page header text",
          "status": "passed",
          "statusDetails": {
            "known": false,
            "muted": false,
            "flaky": false
          },
          "stage": "finished",
          "steps": [],
          "attachments": [],
          "parameters": [],
          "start": 1650823772262,
          "stop": 1650823772306
        },
        {
          "name": "Delete last specialty. Compare previous and current last item names",
          "status": "passed",
          "statusDetails": {
            "known": false,
            "muted": false,
            "flaky": false
          },
          "stage": "finished",
          "steps": [
            {
              "name": "Get name of last specialties item",
              "status": "passed",
              "statusDetails": {
                "known": false,
                "muted": false,
                "flaky": false
              },
              "stage": "finished",
              "steps": [],
              "attachments": [],
              "parameters": [],
              "start": 1650823772307,
              "stop": 1650823772333
            },
            {
              "name": "Get name of last specialties item",
              "status": "passed",
              "statusDetails": {
                "known": false,
                "muted": false,
                "flaky": false
              },
              "stage": "finished",
              "steps": [],
              "attachments": [],
              "parameters": [],
              "start": 1650823773876,
              "stop": 1650823773893
            }
          ],
          "attachments": [],
          "parameters": [],
          "start": 1650823772306,
          "stop": 1650823773893
        }
      ],
      "attachments": [
        {
          "name": "Console Output",
          "source": "55143ba2c92849cfb68b0d2c4037792e-attachment.txt",
          "type": "text/plain"
        }
      ],
      "parameters": [],
      "start": 1650823765110,
      "stop": 1650823775494
    }
  ],
  "attachments": [],
  "parameters": [],
  "start": 1650823765110,
  "stop": 1650823775494
}