{
  "uuid": "63785cef-311e-404b-84b5-5057250983d9-tr-0-1009",
  "historyId": "Lr4.SpecialtiesitemcreatesTest.specialtiesitemcreates(\"New specialty 1\")",
  "fullName": "Lr4.SpecialtiesitemcreatesTest.specialtiesitemcreates(\"New specialty 1\")",
  "labels": [
    {
      "name": "thread",
      "value": "ParallelWorker#7"
    },
    {
      "name": "host",
      "value": "TINA"
    },
    {
      "name": "package",
      "value": "Lr4"
    },
    {
      "name": "testMethod",
      "value": "specialtiesitemcreates"
    },
    {
      "name": "testClass",
      "value": "SpecialtiesitemcreatesTest"
    },
    {
      "name": "suite",
      "value": "Specialties"
    },
    {
      "name": "tag",
      "value": "NUnit"
    }
  ],
  "links": [],
  "name": "specialtiesitemcreates(\"New specialty 1\")",
  "status": "passed",
  "statusDetails": {
    "known": false,
    "muted": false,
    "flaky": false,
    "message": "specialtiesitemcreates(\"New specialty 1\")"
  },
  "stage": "finished",
  "description": "This test checks that specialty could be created successfully\n",
  "steps": [
    {
      "name": "specialtiesitemcreates(\"New specialty 1\")",
      "status": "passed",
      "statusDetails": {
        "known": false,
        "muted": false,
        "flaky": false
      },
      "stage": "finished",
      "steps": [
        {
          "name": "Open specialties page",
          "status": "passed",
          "statusDetails": {
            "known": false,
            "muted": false,
            "flaky": false
          },
          "stage": "finished",
          "steps": [],
          "attachments": [],
          "parameters": [],
          "start": 1650826018539,
          "stop": 1650826018710
        },
        {
          "name": "Get specialties page header text",
          "status": "passed",
          "statusDetails": {
            "known": false,
            "muted": false,
            "flaky": false
          },
          "stage": "finished",
          "steps": [],
          "attachments": [],
          "parameters": [],
          "start": 1650826020240,
          "stop": 1650826020277
        },
        {
          "name": "Add specialty with specified name",
          "status": "passed",
          "statusDetails": {
            "known": false,
            "muted": false,
            "flaky": false
          },
          "stage": "finished",
          "steps": [],
          "attachments": [],
          "parameters": [
            {
              "name": "String",
              "value": "New specialty 1"
            }
          ],
          "start": 1650826020286,
          "stop": 1650826020685
        },
        {
          "name": "Get name of last specialties item",
          "status": "passed",
          "statusDetails": {
            "known": false,
            "muted": false,
            "flaky": false
          },
          "stage": "finished",
          "steps": [],
          "attachments": [],
          "parameters": [],
          "start": 1650826022194,
          "stop": 1650826022231
        }
      ],
      "attachments": [
        {
          "name": "Console Output",
          "source": "b54a5caca313467a949997ed4288346b-attachment.txt",
          "type": "text/plain"
        }
      ],
      "parameters": [],
      "start": 1650826009777,
      "stop": 1650826022300
    }
  ],
  "attachments": [],
  "parameters": [
    {
      "name": "Param #0",
      "value": "New specialty 1"
    }
  ],
  "start": 1650826009776,
  "stop": 1650826022307
}