Label,# Samples,Average,Median,90% Line,95% Line,99% Line,Min,Max,Error %,Throughput,Received KB/sec,Sent KB/sec
https://rest.sana-commerce.dev/petclinic/api/owners,360,3693,4813,5633,5757,5921,217,5952,0.000%,5.82373,19.43,2.26
Test,360,3693,4813,5633,5757,5921,217,5952,0.000%,5.82345,19.43,2.26
TOTAL,720,3693,4813,5633,5757,5943,217,5952,0.000%,11.64690,38.86,4.52
