Label,# Samples,Average,Median,90% Line,95% Line,99% Line,Min,Max,Error %,Throughput,Received KB/sec,Sent KB/sec
https://rest.sana-commerce.dev/petclinic/api/specialties,1870,18354,24295,27842,28112,28765,210,29128,2.299%,12.53108,9.66,4.81
https://rest.sana-commerce.dev/petclinic/api/specialties/16,1870,2748,2934,3893,4002,17069,43,17123,100.000%,11.76041,5.08,5.64
Test,1870,21103,27535,31855,32263,38134,255,38162,100.000%,11.73724,14.11,10.13
TOTAL,5610,14068,13954,29450,30775,32755,43,38162,67.433%,35.21171,28.23,20.26
