Label,# Samples,Average,Median,90% Line,95% Line,99% Line,Min,Max,Error %,Throughput,Received KB/sec,Sent KB/sec
https://rest.sana-commerce.dev/petclinic/api/specialties,120,450,286,1141,1281,1339,46,1382,0.000%,10.72865,7.75,4.21
https://rest.sana-commerce.dev/petclinic/api/specialties/16,120,204,196,306,484,698,42,797,100.000%,11.13069,4.80,4.88
Test,60,1309,1276,1891,2026,2089,365,2175,100.000%,5.36337,12.38,8.91
TOTAL,300,523,278,1338,1744,2026,42,2175,60.000%,26.81684,24.76,17.82
