Label,# Samples,Average,Median,90% Line,95% Line,99% Line,Min,Max,Error %,Throughput,Received KB/sec,Sent KB/sec
https://rest.sana-commerce.dev/petclinic/api/specialties,320,997,504,2339,2444,2588,46,3006,0.000%,13.34668,9.65,5.24
https://rest.sana-commerce.dev/petclinic/api/specialties/16,320,395,481,598,606,781,42,856,100.000%,13.63094,5.88,5.97
Test,160,2785,3436,3904,3959,4076,365,4208,100.000%,6.67306,15.41,11.08
TOTAL,800,1114,504,3436,3766,3959,42,4208,60.000%,33.36531,30.81,22.17
