Label,# Samples,Average,Median,90% Line,95% Line,99% Line,Min,Max,Error %,Throughput,Received KB/sec,Sent KB/sec
https://rest.sana-commerce.dev/petclinic/api/specialties,720,2076,1068,5755,5915,6298,46,6404,0.000%,16.65394,12.04,6.54
https://rest.sana-commerce.dev/petclinic/api/specialties/16,720,752,697,1307,1391,1486,42,1495,100.000%,17.13103,7.39,7.50
Test,360,5657,5893,9508,9694,9936,365,10004,100.000%,8.32697,19.22,13.83
TOTAL,1800,2262,1069,6051,9131,9694,42,10004,60.000%,41.63390,38.45,27.66
