Label,# Samples,Average,Median,90% Line,95% Line,99% Line,Min,Max,Error %,Throughput,Received KB/sec,Sent KB/sec
https://rest.sana-commerce.dev/petclinic/api/owners,11,282,285,300,300,335,252,335,0.000%,.53993,1.80,0.21
Test,11,282,285,300,300,335,252,335,0.000%,.53821,1.80,0.21
TOTAL,22,282,285,300,335,335,252,335,0.000%,1.07643,3.59,0.42
